…
DuckDB - Transactions
• DuckDB supports ACID transactions
• Based on HyPer MVCC model
• Optimized for vectorized processing
• DuckDB supports snapshot isolation
MVCC
Latest V1 V2
• Optimistic concurrency control
• Changes to the same rows → transaction abort
DuckDB - External Formats
• DuckDB supports querying directly over many formats
• Parquet, CSV, JSON, Arrow, Pandas, SQLite, Postgres, …
$ duckdb
D FROM lineitem.parquet;
┌────────────┬───────────┬───────────┬───┬───────────────────┬────────────┬──────────────────────┐
│ l_orderkey │ l_partkey │ l_suppkey │ … │ l_shipinstruct │ l_shipmode │ l_comment │
│ int32 │ int32 │ int32 │ │ varchar │ varchar │ varchar │
├────────────┼───────────┼───────────┼───┼───────────────────┼────────────┼──────────────────────┤
│ 1 │ 155190 │ 7706 │ … │ DELIVER IN PERSON │ TRUCK │ to beans x-ray car… │
│ 1 │ 67310 │ 7311 │ … │ TAKE BACK RETURN │ MAIL │ according to the … │
│ 1 │ 63700 │ 3701 │ … │ TAKE BACK RETURN │ REG AIR │ ourts cajole above… │
│ 1 │ 2132 │ 4633 │ … │ NONE │ AIR │ s cajole busily ab… │
│ 1 │ 24027 │ 1534 │ … │ NONE │ FOB │ the regular, regu… │
│ · │ · │ · │ · │ · │ · │ · │
│ · │ · │ · │ · │ · │ · │ · │
│ · │ · │ · │ · │ · │ · │ · │
│ 5999975 │ 7272 │ 2273 │ … │ COLLECT COD │ REG AIR │ ld deposits aga │
│ 5999975 │ 6452 │ 1453 │ … │ DELIVER IN PERSON │ SHIP │ ffily along the sly │
│ 5999975 │ 37131 │ 2138 │ … │ DELIVER IN PERSON │ FOB │ counts cajole even… │
│ 6000000 │ 32255 │ 2256 │ … │ TAKE BACK RETURN │ MAIL │ riously pe │
│ 6000000 │ 96127 │ 6128 │ … │ NONE │ AIR │ pecial excuses nag… │
├────────────┴───────────┴───────────┴───┴───────────────────┴────────────┴──────────────────────┤
│ 6001215 rows (10 shown) 16 columns (6 shown) │
└────────────────────────────────────────────────────────────────────────────────────────────────┘
…
sqlite> SELECT * FROM lineitem_subset LIMIT 3;
┌────────────┬───────────┬───────────┬─────────────────────────────────────┐
│ l_orderkey │ l_partkey │ l_suppkey │ l_comment │
├────────────┼───────────┼───────────┼─────────────────────────────────────┤
│ 1 │ 155190 │ 7706 │ to beans x-ray carefull │
│ 1 │ 67310 │ 7311 │ according to the final foxes. qui │
│ 1 │ 63700 │ 3701 │ ourts cajole above the furiou │
└────────────┴───────────┴───────────┴─────────────────────────────────────┘
DuckDB - Pluggable File System + HTTP/Object Store Reads
• DuckDB has a pluggable file system
• Used for querying over HTTP/S3/object stores
$ duckdb
D LOAD httpfs;
D FROM 'https://github.com/duckdb/duckdb-data/releases/download/v1.0/yellowcab.parquet';
┌──────────┬──────────────────────┬──────────────────────┬───┬──────────────┬──────────────────────┬──────────────┐
│ VendorID │ tpep_pickup_datetime │ tpep_dropoff_datet… │ … │ tolls_amount │ improvement_surcha… │ total_amount │
│ int32 │ varchar │ varchar │ │ varchar │ varchar │ varchar │
├──────────┼──────────────────────┼──────────────────────┼───┼──────────────┼──────────────────────┼──────────────┤
│ 2 │ 2016-01-01 00:00:00 │ 2016-01-01 00:00:00 │ … │ 0 │ 0.3 │ 8.8 │
│ 2 │ 2016-01-01 00:00:00 │ 2016-01-01 00:00:00 │ … │ 0 │ 0.3 │ 19.3 │
│ 2 │ 2016-01-01 00:00:00 │ 2016-01-01 00:00:00 │ … │ 0 │ 0.3 │ 34.3 │
│ 2 │ 2016-01-01 00:00:00 │ 2016-01-01 00:00:00 │ … │ 0 │ 0.3 │ 17.3 │
│ 2 │ 2016-01-01 00:00:00 │ 2016-01-01 00:00:00 │ … │ 0 │ 0.3 │ 8.8 │
│ · │ · │ · │ · │ · │ · │ · │
│ · │ · │ · │ · │ · │ · │ · │
│ · │ · │ · │ · │ · │ · │ · │
│ 1 │ 2016-01-01 13:03:57 │ 2016-01-01 13:10:39 │ … │ 0 │ 0.3 │ 7.8 │
│ 2 │ 2016-01-01 13:03:57 │ 2016-01-01 13:15:13 │ … │ 0 │ 0.3 │ 13.33 │
│ 1 │ 2016-01-01 13:03:58 │ 2016-01-01 13:39:53 │ … │ 10.5 │ 0.3 │ 98.8 │
│ 2 │ 2016-01-01 13:03:58 │ 2016-01-01 13:07:47 │ … │ 0 │ 0.3 │ 6.36 │
│ 2 │ 2016-01-01 13:03:58 │ 2016-01-01 13:21:01 │ … │ NULL │ NULL │ NULL │
├──────────┴──────────────────────┴──────────────────────┴───┴──────────────┴──────────────────────┴──────────────┤
│ 234118 rows (10 shown) 19 columns (6 shown) │
└─────────────────────────────────────────────────────────────────────────────────────────────────────────────────┘
…
