…
as the whole table would be scanned twice. Using avg in a partitioned window context is
much easier to read and will perform well. The aggregate, in this case avg(kWh), is
computed over the window that follows, it does not change the number of rows and will
be present in each row. It will be computed for every system as defined by the partition:
© Manning Publications Co. To comment go to liveBook
85
SELECT *,
avg(kWh) -- #1
OVER (
PARTITION BY system_id
) AS average_per_system
FROM v_power_per_day;
#1 Computing an aggregate over a partition
And you will find the requested value in an additional column:
┌───────────┬────────────┬────────┬────────────────────┐
│ system_id │ day │ kWh │ average_per_system │
│ int32 │ date │ double │ double │
├───────────┼────────────┼────────┼────────────────────┤
│ 10 │ 2019-01-01 │ 2.19 │ 4.444051896207586 │
│ 10 │ 2019-01-04 │ 5.37 │ 4.444051896207586 │
│ · │ · │ · │ · │
│ · │ · │ · │ · │
│ · │ · │ · │ · │
│ 1200 │ 2019-07-25 │ 232.37 │ 170.75771639042347 │
│ 1200 │ 2019-04-29 │ 210.97 │ 170.75771639042347 │
├───────────┴────────────┴────────┴────────────────────┤
│ 1587 rows (4 shown) 4 columns │
└──────────────────────────────────────────────────────┘
…
