…
FROM indexes,
LATERAL (
SELECT hourly.shortwave_radiation_instant[i+1] -- #2
AS v
FROM 'code/ch04/ghi_past_and_future.json' -- #3
) AS ghi
ORDER BY ts;
#1 Recreates a data again from the hourly index
#2 Arrays are 1 based in DuckDB (and SQL in general)
#3 DuckDB automatically detects that this string refers to a JSON files, loads and parses it
The end of August in Aachen did look like this in 2023, it was not a great month for
photovoltaics:
© Manning Publications Co. To comment go to liveBook
114
┌──────────────────────────┬──────────────┐
│ ts │ GHI in W/m^2 │
│ timestamp with time zone │ double │
├──────────────────────────┼──────────────┤
│ 2023-08-26 08:00:00+02 │ 36.0 │
│ 2023-08-26 13:00:00+02 │ 490.7 │
│ 2023-08-26 18:00:00+02 │ 2.3 │
│ 2023-08-27 08:00:00+02 │ 243.4 │
│ 2023-08-27 13:00:00+02 │ 124.3 │
│ · │ · │
│ · │ · │
│ · │ · │
│ 2023-09-01 13:00:00+02 │ 392.0 │
│ 2023-09-01 18:00:00+02 │ 0.0 │
│ 2023-09-02 08:00:00+02 │ 451.0 │
│ 2023-09-02 13:00:00+02 │ 265.0 │
│ 2023-09-02 18:00:00+02 │ 0.0 │
├──────────────────────────┴──────────────┤
│ 24 rows (10 shown) 2 columns │
└─────────────────────────────────────────┘
…
