…
lag(value) -- #1
OVER validity AS "Previous value",
value - lag(value, 1, value)
OVER validity AS Change -- #2
FROM prices
WHERE date_part('year', valid_from) = 2019
WINDOW validity AS (ORDER BY valid_from)
ORDER BY valid_from;
#1 Jumps back a row and picks out the value column
#2 The change is computed as difference of the price in the current row and the price in the row before that, or the same value if
there is no row before
As you see, in each new period the price decreased considerably in 2019:
© Manning Publications Co. To comment go to liveBook
91
┌────────────┬──────────────┬────────────────┬──────────────┐
│ valid_from │ value │ Previous value │ Change │
│ date │ decimal(5,2) │ decimal(5,2) │ decimal(6,2) │
├────────────┼──────────────┼────────────────┼──────────────┤
│ 2019-01-01 │ 11.47 │ │ 0.00 │
│ 2019-02-01 │ 11.35 │ 11.47 │ -0.12 │
│ 2019-03-01 │ 11.23 │ 11.35 │ -0.12 │
│ 2019-04-01 │ 11.11 │ 11.23 │ -0.12 │
│ · │ · │ · │ · │
│ · │ · │ · │ · │
│ · │ · │ · │ · │
│ 2019-09-01 │ 10.33 │ 10.48 │ -0.15 │
│ 2019-10-01 │ 10.18 │ 10.33 │ -0.15 │
│ 2019-11-01 │ 10.08 │ 10.18 │ -0.10 │
│ 2019-12-01 │ 9.97 │ 10.08 │ -0.11 │
├────────────┴──────────────┴────────────────┴──────────────┤
│ 12 rows (8 shown) 4 columns │
└───────────────────────────────────────────────────────────┘
…
