…
1382 rows and 545(!) columns. Why is that? v_power_per_day contains 1382 distinct
values of (system_id, kWh), which make up the rows. The system has been asked to
create a column using the day, not year(day) and there are 543 different days
recorded. The two additional columns are the system_id and the kWh column. What’s in
the cells? Many, many zeros and a couple of ones. Without the USING clause DuckDB will
fill the cells with zeros for days that didn’t have the specific value, and ones for days that
had. So in case you are actually interested in a tabular view of all days, you might want
to use the first aggregate like this in such a case:
PIVOT (
FROM v_power_per_day WHERE day BETWEEN '2020-05-30' AND '2020-06-02'
)
ON DAY USING first(kWh);
Note that we deliberately chose to select only a couple of days instead of trying to print
several hundred columns. The above query pivots this result on the day:
┌───────────┬────────────┬────────┐
│ system_id │ day │ kWh │
│ int32 │ date │ double │
├───────────┼────────────┼────────┤
│ 1200 │ 2020-05-30 │ 280.4 │
│ 1200 │ 2020-05-31 │ 282.25 │
│ 1200 │ 2020-06-01 │ 288.29 │
│ 1200 │ 2020-06-02 │ 152.83 │
│ · │ · │ · │
│ · │ · │ · │
│ · │ · │ · │
│ 10 │ 2020-05-30 │ 4.24 │
│ 10 │ 2020-05-31 │ 3.78 │
│ 10 │ 2020-06-01 │ 4.47 │
│ 10 │ 2020-06-02 │ 5.09 │
├───────────┴────────────┴────────┤
│ 12 rows (8 shown) 3 columns │
└─────────────────────────────────┘
…
price periods
SELECT power.day,
power.kWh,
prices.value as 'ct/kWh',
round(sum(prices.value * power.kWh)
OVER (ORDER BY power.day ASC) / 100, 2)
AS 'Accumulated earnings in EUR'
FROM v_power_per_day power
ASOF JOIN prices
ON prices.valid_from <= power.day
WHERE system_id = 34
ORDER BY day;
The result shows the day, the amount of kWH produced, the price in ct per kWH on that
day, and the accumulated sum of the product of power produced and price:
┌────────────┬────────┬──────────────┬─────────────────────────────┐
│ day │ kWh │ ct/kWh │ Accumulated earnings in EUR │
│ date │ double │ decimal(5,2) │ double │
├────────────┼────────┼──────────────┼─────────────────────────────┤
│ 2019-01-01 │ 471.4 │ 11.47 │ 54.07 │
│ 2019-01-02 │ 458.58 │ 11.47 │ 106.67 │
│ 2019-01-03 │ 443.65 │ 11.47 │ 157.56 │
│ 2019-01-04 │ 445.03 │ 11.47 │ 208.6 │
│ · │ · │ · │ · │
│ · │ · │ · │ · │
│ · │ · │ · │ · │
│ 2020-06-23 │ 798.85 │ 9.17 │ 31371.86 │
│ 2020-06-24 │ 741.15 │ 9.17 │ 31439.83 │
│ 2020-06-25 │ 762.6 │ 9.17 │ 31509.76 │
│ 2020-06-26 │ 11.98 │ 9.17 │ 31510.86 │
├────────────┴────────┴──────────────┴─────────────────────────────┤
│ 543 rows (8 shown) 4 columns │
└──────────────────────────────────────────────────────────────────┘
…
