…
RESHAPING RESULTS WITH REPLACE
Think about the view v_power_per_day. It computes the kWh in fractions. For some
users you may only want to return the integer values. You could create a copy of that
view that recomputes the values rounding them, but you can also reuse the existing logic
and do the rounding where needed and keeping the structure the same:
SELECT * REPLACE (round(kWh)::int AS kWh)
FROM v_power_per_day;
The REPLACE clause takes in one or more pairs of x AS y constructs with x being an
expression that can refer to columns of the original select list, applying functions and
other transformations to them and y being a name that has been used in the original
select list.
© Manning Publications Co. To comment go to liveBook
60
The structure of the result is the same, but the kWh column now is an integer column:
┌───────────┬────────────┬───────┐
│ system_id │ day │ kWh │
│ int32 │ date │ int32 │
├───────────┼────────────┼───────┤
│ 1200 │ 2019-08-29 │ 289 │
│ · │ · │ · │
│ · │ · │ · │
│ · │ · │ · │
│ 10 │ 2020-03-19 │ 0 │
├───────────┴────────────┴───────┤
│ 1587 rows (2 shown) 3 columns │
└────────────────────────────────┘
…
