…
dataset for system 34 as it suits our requirements to begin with (having readings in a 15
minutes interval). It does have some inconsistencies to deal with: the power output is
sometimes NULL (not present) or negative. We will use a CASE expression to default
missing values to 0.
As the URL does not give a clear indication for DuckDB which type of file or structure
is behind it (like spotting an extension such as .csv or .parquet), we must use the
read_csv_auto function, as the database won’t be able to infer the correct file type.
© Manning Publications Co. To comment go to liveBook
37
Listing 3.7 Download and ingest the first set of readings
INSERT INTO readings(system_id, read_on, power)
SELECT SiteId, "Date-Time",
CASE
WHEN ac_power  0;:
┌───────────┬─────────────────────┬───────────────┐
│ system_id │ read_on │ power │
│ int32 │ timestamp │ decimal(10,3) │
├───────────┼─────────────────────┼───────────────┤
│ 34 │ 2019-08-26 05:30:00 │ 1700.000 │
│ 34 │ 2019-08-26 05:45:00 │ 3900.000 │
│ 34 │ 2019-08-26 06:00:00 │ 8300.000 │
│ · │ · │ · │
│ · │ · │ · │
│ · │ · │ · │
│ 34 │ 2019-08-26 17:30:00 │ 5200.000 │
│ 34 │ 2019-08-26 17:45:00 │ 2200.000 │
│ 34 │ 2019-08-26 18:00:00 │ 600.000 │
├───────────┴─────────────────────┴───────────────┤
│ 51 rows (6 shown) 3 columns │
└─────────────────────────────────────────────────┘
…
THE WHERE CLAUSE
The WHERE clause allows filtering your data by adding conditions to a query. Those
conditions are built of one or more expressions. Data that is selected through a SELECT,
DELETE or UPDATE statement must match those predicates to be included in the
operations This allows you to select only a subset of the data in which you are
interested. Logically the WHERE clause is applied immediately after the FROM clause or the
preceding DELETE or UPDATE statement.
In our example we can replace that arbitrary LIMIT with a proper condition that will
include only the prices for a specific year (2000) by adding the following WHERE clause:
FROM prices
WHERE valid_from BETWEEN -- #1
'2020-01-01' AND '2020-12-31';
#1 The BETWEEN keyword is a shorthand for x >= v AND v <= x.
Based on our example data, the query will return 11 rows:
┌───────┬──────────────┬────────────┬─────────────┐
│ id │ value │ valid_from │ valid_until │
│ int32 │ decimal(5,2) │ date │ date │
├───────┼──────────────┼────────────┼─────────────┤
│ 15 │ 8.60 │ 2020-11-01 │ 2023-01-01 │
│ 17 │ 8.64 │ 2020-10-01 │ 2020-11-01 │
│ · │ · │ · │ · │
│ · │ · │ · │ · │
│ · │ · │ · │ · │
│ 25 │ 9.72 │ 2020-02-01 │ 2020-03-01 │
│ 26 │ 9.87 │ 2020-01-01 │ 2020-02-01 │
├───────┴──────────────┴────────────┴─────────────┤
│ 11 rows (4 shown) 4 columns │
└─────────────────────────────────────────────────┘
…
